setprop("/instrumentation/fmc/vspeeds/V1", 0);
setprop("/instrumentation/fmc/vspeeds/VR", 0);
setprop("/instrumentation/fmc/vspeeds/V2", 0);

var hold = "/flight-management/hold/";

var target = func(prop, value, step, deadband) {

	if (math.abs(getprop(prop) - value) >= deadband) {
	
		if (getprop(prop) > value)
			setprop(prop, getprop(prop) - step);
		else
			setprop(prop, getprop(prop) + step);
	
	}

};

var general_loop_1 = {
       init : func {
            me.UPDATE_INTERVAL = 0.02;
            me.loopid = 0;
            
            setprop("/gear/tilt/left-tilt-deg", 0);
            setprop("/gear/tilt/right-tilt-deg", 0);
            
            me.reset();
    },
    	update : func {
    	
    	# Rudder Trim Control

    	setprop("/controls/flight/rudder-trim-deg", getprop("/controls/flight/rudder-trim") * 10);
    	
    	# Engine Fuel Flow Conversion
    	
    	setprop("/engines/engine/fuel-flow-kgph", getprop("/engines/engine/fuel-flow_pph") * 0.45359237);
    	setprop("/engines/engine[1]/fuel-flow-kgph", getprop("/engines/engine[1]/fuel-flow_pph") * 0.45359237);
    	
    	setprop(hold~"time-dist-string", getprop(hold~"time")~"/"~int(getprop(hold~"dist")));
    	
	},

        reset : func {
            me.loopid += 1;
            me._loop_(me.loopid);
    },
        _loop_ : func(id) {
            id == me.loopid or return;
            me.update();
            settimer(func { me._loop_(id); }, me.UPDATE_INTERVAL);
    }

};

setlistener("sim/signals/fdm-initialized", func
 {
 general_loop_1.init();
 });
